%YAML 1.1
%TAG !u! tag:unity3d.com,2011:
--- !u!1 &5691380920519032742
GameObject:
  m_ObjectHideFlags: 0
  m_CorrespondingSourceObject: {fileID: 0}
  m_PrefabInstance: {fileID: 0}
  m_PrefabAsset: {fileID: 0}
  serializedVersion: 6
  m_Component:
  - component: {fileID: 5691380920519032744}
  - component: {fileID: 5691380920519032745}
  - component: {fileID: 5691380920519032746}
  - component: {fileID: 5691380920519032747}
  - component: {fileID: 5691380920519032749}
  - component: {fileID: 1006520320059725989}
  - component: {fileID: 2169685277533612073}
  m_Layer: 0
  m_Name: BigAsteroid
  m_TagString: Obstacle
  m_Icon: {fileID: 0}
  m_NavMeshLayer: 0
  m_StaticEditorFlags: 0
  m_IsActive: 1
--- !u!4 &5691380920519032744
Transform:
  m_ObjectHideFlags: 0
  m_CorrespondingSourceObject: {fileID: 0}
  m_PrefabInstance: {fileID: 0}
  m_PrefabAsset: {fileID: 0}
  m_GameObject: {fileID: 5691380920519032742}
  m_LocalRotation: {x: 0, y: 0, z: 0, w: 1}
  m_LocalPosition: {x: 0, y: 0, z: 0}
  m_LocalScale: {x: 10, y: 10, z: 1}
  m_Children:
  - {fileID: 5492290581920629769}
  m_Father: {fileID: 0}
  m_RootOrder: 0
  m_LocalEulerAnglesHint: {x: 0, y: 0, z: 0}
--- !u!212 &5691380920519032745
SpriteRenderer:
  m_ObjectHideFlags: 0
  m_CorrespondingSourceObject: {fileID: 0}
  m_PrefabInstance: {fileID: 0}
  m_PrefabAsset: {fileID: 0}
  m_GameObject: {fileID: 5691380920519032742}
  m_Enabled: 1
  m_CastShadows: 0
  m_ReceiveShadows: 0
  m_DynamicOccludee: 1
  m_MotionVectors: 1
  m_LightProbeUsage: 1
  m_ReflectionProbeUsage: 1
  m_RayTracingMode: 0
  m_RenderingLayerMask: 1
  m_RendererPriority: 0
  m_Materials:
  - {fileID: 10754, guid: 0000000000000000f000000000000000, type: 0}
  m_StaticBatchInfo:
    firstSubMesh: 0
    subMeshCount: 0
  m_StaticBatchRoot: {fileID: 0}
  m_ProbeAnchor: {fileID: 0}
  m_LightProbeVolumeOverride: {fileID: 0}
  m_ScaleInLightmap: 1
  m_ReceiveGI: 1
  m_PreserveUVs: 0
  m_IgnoreNormalsForChartDetection: 0
  m_ImportantGI: 0
  m_StitchLightmapSeams: 1
  m_SelectedEditorRenderState: 0
  m_MinimumChartSize: 4
  m_AutoUVMaxDistance: 0.5
  m_AutoUVMaxAngle: 89
  m_LightmapParameters: {fileID: 0}
  m_SortingLayerID: 0
  m_SortingLayer: 0
  m_SortingOrder: 0
  m_Sprite: {fileID: -4988566461935687532, guid: 39b600537fcb366409890ef6ecaad28d,
    type: 3}
  m_Color: {r: 1, g: 1, b: 1, a: 1}
  m_FlipX: 0
  m_FlipY: 0
  m_DrawMode: 0
  m_Size: {x: 0.19666667, y: 0.16833334}
  m_AdaptiveModeThreshold: 0.5
  m_SpriteTileMode: 0
  m_WasSpriteAssigned: 1
  m_MaskInteraction: 0
  m_SpriteSortPoint: 0
--- !u!50 &5691380920519032746
Rigidbody2D:
  serializedVersion: 4
  m_ObjectHideFlags: 0
  m_CorrespondingSourceObject: {fileID: 0}
  m_PrefabInstance: {fileID: 0}
  m_PrefabAsset: {fileID: 0}
  m_GameObject: {fileID: 5691380920519032742}
  m_BodyType: 0
  m_Simulated: 1
  m_UseFullKinematicContacts: 0
  m_UseAutoMass: 0
  m_Mass: 0.5
  m_LinearDrag: 0
  m_AngularDrag: 0.05
  m_GravityScale: 0
  m_Material: {fileID: 0}
  m_Interpolate: 0
  m_SleepingMode: 1
  m_CollisionDetection: 0
  m_Constraints: 0
--- !u!58 &5691380920519032747
CircleCollider2D:
  m_ObjectHideFlags: 0
  m_CorrespondingSourceObject: {fileID: 0}
  m_PrefabInstance: {fileID: 0}
  m_PrefabAsset: {fileID: 0}
  m_GameObject: {fileID: 5691380920519032742}
  m_Enabled: 1
  m_Density: 1
  m_Material: {fileID: 0}
  m_IsTrigger: 1
  m_UsedByEffector: 0
  m_UsedByComposite: 0
  m_Offset: {x: 0, y: 0}
  serializedVersion: 2
  m_Radius: 0.076547764
--- !u!114 &5691380920519032749
MonoBehaviour:
  m_ObjectHideFlags: 0
  m_CorrespondingSourceObject: {fileID: 0}
  m_PrefabInstance: {fileID: 0}
  m_PrefabAsset: {fileID: 0}
  m_GameObject: {fileID: 5691380920519032742}
  m_Enabled: 1
  m_EditorHideFlags: 0
  m_Script: {fileID: 11500000, guid: 3a40dfa984d8d3a4aa34c5e69202ffcc, type: 3}
  m_Name: 
  m_EditorClassIdentifier: 
  type: 0
--- !u!114 &1006520320059725989
MonoBehaviour:
  m_ObjectHideFlags: 0
  m_CorrespondingSourceObject: {fileID: 0}
  m_PrefabInstance: {fileID: 0}
  m_PrefabAsset: {fileID: 0}
  m_GameObject: {fileID: 5691380920519032742}
  m_Enabled: 1
  m_EditorHideFlags: 0
  m_Script: {fileID: 11500000, guid: d68028a30a6a21c4198a1794d65930ea, type: 3}
  m_Name: 
  m_EditorClassIdentifier: 
--- !u!114 &2169685277533612073
MonoBehaviour:
  m_ObjectHideFlags: 0
  m_CorrespondingSourceObject: {fileID: 0}
  m_PrefabInstance: {fileID: 0}
  m_PrefabAsset: {fileID: 0}
  m_GameObject: {fileID: 5691380920519032742}
  m_Enabled: 1
  m_EditorHideFlags: 0
  m_Script: {fileID: 11500000, guid: 5ca96ab0f8e74798a91db3dacf793476, type: 3}
  m_Name: 
  m_EditorClassIdentifier: 
  spriteRenderer: {fileID: 5691380920519032745}
  object3D: {fileID: 5492290581920629768}
--- !u!1001 &306231792070312329
PrefabInstance:
  m_ObjectHideFlags: 0
  serializedVersion: 2
  m_Modification:
    m_TransformParent: {fileID: 5691380920519032744}
    m_Modifications:
    - target: {fileID: 5190254663702807936, guid: 4b1cfd75ab0b1e842b6b2ac69f5d3b61,
        type: 3}
      propertyPath: m_LocalPosition.x
      value: -0.00000035802
      objectReference: {fileID: 0}
    - target: {fileID: 5190254663702807936, guid: 4b1cfd75ab0b1e842b6b2ac69f5d3b61,
        type: 3}
      propertyPath: m_LocalPosition.y
      value: -0.001372
      objectReference: {fileID: 0}
    - target: {fileID: 5190254663702807936, guid: 4b1cfd75ab0b1e842b6b2ac69f5d3b61,
        type: 3}
      propertyPath: m_LocalPosition.z
      value: 0.0000014663
      objectReference: {fileID: 0}
    - target: {fileID: 5190254663702807936, guid: 4b1cfd75ab0b1e842b6b2ac69f5d3b61,
        type: 3}
      propertyPath: m_LocalRotation.x
      value: 0
      objectReference: {fileID: 0}
    - target: {fileID: 5190254663702807936, guid: 4b1cfd75ab0b1e842b6b2ac69f5d3b61,
        type: 3}
      propertyPath: m_LocalRotation.y
      value: 0
      objectReference: {fileID: 0}
    - target: {fileID: 5190254663702807936, guid: 4b1cfd75ab0b1e842b6b2ac69f5d3b61,
        type: 3}
      propertyPath: m_LocalRotation.z
      value: 0
      objectReference: {fileID: 0}
    - target: {fileID: 5190254663702807936, guid: 4b1cfd75ab0b1e842b6b2ac69f5d3b61,
        type: 3}
      propertyPath: m_LocalRotation.w
      value: 1
      objectReference: {fileID: 0}
    - target: {fileID: 5190254663702807936, guid: 4b1cfd75ab0b1e842b6b2ac69f5d3b61,
        type: 3}
      propertyPath: m_RootOrder
      value: 0
      objectReference: {fileID: 0}
    - target: {fileID: 5190254663702807936, guid: 4b1cfd75ab0b1e842b6b2ac69f5d3b61,
        type: 3}
      propertyPath: m_LocalEulerAnglesHint.x
      value: 0
      objectReference: {fileID: 0}
    - target: {fileID: 5190254663702807936, guid: 4b1cfd75ab0b1e842b6b2ac69f5d3b61,
        type: 3}
      propertyPath: m_LocalEulerAnglesHint.y
      value: 0
      objectReference: {fileID: 0}
    - target: {fileID: 5190254663702807936, guid: 4b1cfd75ab0b1e842b6b2ac69f5d3b61,
        type: 3}
      propertyPath: m_LocalEulerAnglesHint.z
      value: 0
      objectReference: {fileID: 0}
    - target: {fileID: 5190254663702807936, guid: 4b1cfd75ab0b1e842b6b2ac69f5d3b61,
        type: 3}
      propertyPath: m_LocalScale.x
      value: 0.093879
      objectReference: {fileID: 0}
    - target: {fileID: 5190254663702807936, guid: 4b1cfd75ab0b1e842b6b2ac69f5d3b61,
        type: 3}
      propertyPath: m_LocalScale.y
      value: 0.093879
      objectReference: {fileID: 0}
    - target: {fileID: 5190254663702807936, guid: 4b1cfd75ab0b1e842b6b2ac69f5d3b61,
        type: 3}
      propertyPath: m_LocalScale.z
      value: 0.62586
      objectReference: {fileID: 0}
    - target: {fileID: 5190254663702807937, guid: 4b1cfd75ab0b1e842b6b2ac69f5d3b61,
        type: 3}
      propertyPath: m_Name
      value: BigAsteroid-3D
      objectReference: {fileID: 0}
    - target: {fileID: 5190254663702807937, guid: 4b1cfd75ab0b1e842b6b2ac69f5d3b61,
        type: 3}
      propertyPath: m_IsActive
      value: 0
      objectReference: {fileID: 0}
    m_RemovedComponents: []
  m_SourcePrefab: {fileID: 100100000, guid: 4b1cfd75ab0b1e842b6b2ac69f5d3b61, type: 3}
--- !u!1 &5492290581920629768 stripped
GameObject:
  m_CorrespondingSourceObject: {fileID: 5190254663702807937, guid: 4b1cfd75ab0b1e842b6b2ac69f5d3b61,
    type: 3}
  m_PrefabInstance: {fileID: 306231792070312329}
  m_PrefabAsset: {fileID: 0}
--- !u!4 &5492290581920629769 stripped
Transform:
  m_CorrespondingSourceObject: {fileID: 5190254663702807936, guid: 4b1cfd75ab0b1e842b6b2ac69f5d3b61,
    type: 3}
  m_PrefabInstance: {fileID: 306231792070312329}
  m_PrefabAsset: {fileID: 0}
